<?xml version="1.0" encoding="utf-8"?>
<!-- Generator: Adobe Illustrator 19.0.0, SVG Export Plug-In . SVG Version: 6.00 Build 0)  -->
<svg version="1.1" id="Layer_1" xmlns="http://www.w3.org/2000/svg" xmlns:xlink="http://www.w3.org/1999/xlink" x="0px" y="0px"
	 width="14px" height="18px" viewBox="0 0 14 18" style="enable-background:new 0 0 14 18;" xml:space="preserve">
<path style="fill:#797979;" d="M3,6h8v10H3V6z M1,18h12V4H1V18z"/>
<polygon style="fill:#797979;" points="4.5,0 3.5,1 0,1 0,3 14,3 14,1 10.5,1 9.5,0 "/>
</svg>
